INDEX VERSION 1.129+D:\WORKSPACES\mcc_adviser\.metadata\.plugins\org.eclipse.jdt.core
2972633837.index
3848406198.index
985286902.index
4268532346.index
2133282975.index
1658334032.index
4047340888.index
618723895.index
1207048071.index
1075794691.index
781808.index
1644702904.index
3417200662.index
2240666333.index
2809250744.index
3313625624.index
414978335.index
2577654902.index
3256604176.index
3376276958.index
2019903893.index
1780201644.index
1932470365.index
4184201189.index
2637943071.index
1301212571.index
3547377037.index
4101063838.index
1319897973.index
471236001.index
1642525575.index
504018544.index
3486364859.index
1381603577.index
1233902589.index
3407430047.index
1288615338.index
351221734.index
2800558102.index
808374113.index
224259141.index
3628564567.index
2855899100.index
