<?xml version="1.0" encoding="UTF-8"?>
<session version="1.0">
<refactoring accessors="true" comment="Delete 4 elements from project &apos;MCC-Adviser-Instrumenter&apos;&#x0D;&#x0A;- Original project: &apos;MCC-Adviser-Instrumenter&apos;&#x0D;&#x0A;- Original elements:&#x0D;&#x0A;     InstrumenterUtils.java&#x0D;&#x0A;     ManageFile.java&#x0D;&#x0A;     MyClass.java&#x0D;&#x0A;     ZippedFile.zip" description="Delete elements" element1="destiny/ZippedFile.zip" element2="destiny/InstrumenterUtils.java" element3="destiny/MyClass.java" element4="destiny/ManageFile.java" elements="0" flags="589830" id="org.eclipse.jdt.ui.delete" resources="4" stamp="1470250249286" subPackages="false" version="1.0"/>
</session>