<?xml version="1.0" encoding="UTF-8"?>
<session version="1.0">
<refactoring comment="Move element &apos;Instrumenter.java&apos; to &apos;website_mcc_adviser/src/controller&apos;&#x0D;&#x0A;- Original project: &apos;MCC-Adviser-Instrumenter&apos;&#x0D;&#x0A;- Destination element: &apos;website_mcc_adviser/src/controller&apos;&#x0D;&#x0A;- Original element: &apos;instrumenter.Instrumenter.java&apos;&#x0D;&#x0A;- Update references to refactored element" description="Move compilation unit" destination="=website_mcc_adviser/src&lt;controller" element1="/src&lt;instrumenter{Instrumenter.java" files="0" flags="589830" folders="0" id="org.eclipse.jdt.ui.move" patterns="*" policy="org.eclipse.jdt.ui.moveResources" qualified="false" references="true" stamp="1472833364987" units="1" version="1.0"/>
</session>