0:0:0:0:0:0:0:1 - - [23/Aug/2016:00:00:06 -0700] "GET /website_mcc_adviser/ HTTP/1.1" 200 8894
0:0:0:0:0:0:0:1 - - [23/Aug/2016:00:00:09 -0700] "POST /website_mcc_adviser/ReadFileInstServlet HTTP/1.1" 200 3437
127.0.0.1 - - [23/Aug/2016:00:04:40 -0700] "GET / HTTP/1.1" 404 994
0:0:0:0:0:0:0:1 - - [23/Aug/2016:00:04:41 -0700] "GET /website_mcc_adviser/ HTTP/1.1" 200 8894
0:0:0:0:0:0:0:1 - - [23/Aug/2016:00:04:44 -0700] "POST /website_mcc_adviser/ReadFileInstServlet HTTP/1.1" 200 3345
0:0:0:0:0:0:0:1 - - [23/Aug/2016:00:04:48 -0700] "GET /website_mcc_adviser/InstrumentationSimplifiedServlet?method=m HTTP/1.1" 200 -
127.0.0.1 - - [23/Aug/2016:00:05:37 -0700] "GET / HTTP/1.1" 404 994
127.0.0.1 - - [23/Aug/2016:00:05:38 -0700] "GET /website_mcc_adviser/ HTTP/1.1" 200 8894
127.0.0.1 - - [23/Aug/2016:00:05:42 -0700] "POST /website_mcc_adviser/ReadFileInstServlet HTTP/1.1" 200 3440
127.0.0.1 - - [23/Aug/2016:00:05:46 -0700] "GET /website_mcc_adviser/InstrumentationSimplifiedServlet?method=m HTTP/1.1" 200 -
127.0.0.1 - - [23/Aug/2016:00:07:55 -0700] "GET / HTTP/1.1" 404 994
0:0:0:0:0:0:0:1 - - [23/Aug/2016:00:07:55 -0700] "GET /website_mcc_adviser/ HTTP/1.1" 200 8894
0:0:0:0:0:0:0:1 - - [23/Aug/2016:00:07:59 -0700] "POST /website_mcc_adviser/ReadFileInstServlet HTTP/1.1" 200 3440
127.0.0.1 - - [23/Aug/2016:00:16:56 -0700] "GET / HTTP/1.1" 404 994
0:0:0:0:0:0:0:1 - - [23/Aug/2016:00:16:56 -0700] "GET /website_mcc_adviser/ HTTP/1.1" 200 8894
0:0:0:0:0:0:0:1 - - [23/Aug/2016:00:17:14 -0700] "POST /website_mcc_adviser/ReadFileInstServlet HTTP/1.1" 200 3440
0:0:0:0:0:0:0:1 - - [23/Aug/2016:00:17:18 -0700] "GET /website_mcc_adviser/InstrumentationSimplifiedServlet?method=m HTTP/1.1" 500 1984
0:0:0:0:0:0:0:1 - - [23/Aug/2016:00:22:39 -0700] "GET /website_mcc_adviser/InstrumentationSimplifiedServlet?method=m HTTP/1.1" 500 1984
127.0.0.1 - - [23/Aug/2016:00:24:55 -0700] "GET / HTTP/1.1" 404 994
0:0:0:0:0:0:0:1 - - [23/Aug/2016:00:24:55 -0700] "GET /website_mcc_adviser/ HTTP/1.1" 200 8894
0:0:0:0:0:0:0:1 - - [23/Aug/2016:00:24:55 -0700] "GET /website_mcc_adviser/resources/bootstrap/css/bootstrap.min.css HTTP/1.1" 304 -
0:0:0:0:0:0:0:1 - - [23/Aug/2016:00:24:55 -0700] "GET /website_mcc_adviser/resources/bootstrap/css/ie10-viewport-bug-workaround.css HTTP/1.1" 304 -
0:0:0:0:0:0:0:1 - - [23/Aug/2016:00:24:55 -0700] "GET /website_mcc_adviser/resources/css/style.css HTTP/1.1" 304 -
0:0:0:0:0:0:0:1 - - [23/Aug/2016:00:24:55 -0700] "GET /website_mcc_adviser/images/mccadv-energy-basic-idea.gif HTTP/1.1" 304 -
0:0:0:0:0:0:0:1 - - [23/Aug/2016:00:24:55 -0700] "GET /website_mcc_adviser/resources/bootstrap/js/ie10-viewport-bug-workaround.js HTTP/1.1" 304 -
0:0:0:0:0:0:0:1 - - [23/Aug/2016:00:24:55 -0700] "GET /website_mcc_adviser/resources/bootstrap/js/bootstrap.min.js HTTP/1.1" 304 -
0:0:0:0:0:0:0:1 - - [23/Aug/2016:00:24:55 -0700] "GET /website_mcc_adviser/images/instrumentation_figura_deitada.gif HTTP/1.1" 304 -
0:0:0:0:0:0:0:1 - - [23/Aug/2016:00:25:39 -0700] "POST /website_mcc_adviser/ReadFileInstServlet HTTP/1.1" 200 3440
0:0:0:0:0:0:0:1 - - [23/Aug/2016:00:25:44 -0700] "GET /website_mcc_adviser/InstrumentationSimplifiedServlet?method=m HTTP/1.1" 200 2875
0:0:0:0:0:0:0:1 - - [23/Aug/2016:00:26:53 -0700] "GET /website_mcc_adviser/ HTTP/1.1" 200 8894
0:0:0:0:0:0:0:1 - - [23/Aug/2016:00:26:56 -0700] "POST /website_mcc_adviser/ReadFileInstServlet HTTP/1.1" 200 3345
0:0:0:0:0:0:0:1 - - [23/Aug/2016:00:28:30 -0700] "GET /website_mcc_adviser/ HTTP/1.1" 200 8894
0:0:0:0:0:0:0:1 - - [23/Aug/2016:00:28:32 -0700] "POST /website_mcc_adviser/ReadFileInstServlet HTTP/1.1" 200 3345
