<?xml version="1.0" encoding="UTF-8"?>
<session version="1.0">
<refactoring comment="Rename resource &apos;Test&apos; to &apos;PokemonSimulator&apos;" description="Rename resource &apos;Test&apos;" flags="7" id="org.eclipse.ltk.core.refactoring.rename.resource" input="/Test" name="PokemonSimulator" stamp="1472845171920" updateReferences="true"/>
</session>